09-1_8bit_ALU/tb_test_out.vcd
$date
	Wed Dec 29 01:19:24 2021
$end
$version
	Icarus Verilog
$end
$timescale
	1ps
$end
$scope module tb_testbench $end
$scope module dut $end
$var wire 8 ! res_AND [7:0] $end
$var wire 8 " res_OR [7:0] $end
$var wire 8 # s [7:0] $end
$var wire 8 $ res [7:0] $end
$var wire 8 % c [7:0] $end
$var wire 8 & b [7:0] $end
$var wire 8 ' a [7:0] $end
$var wire 8 ( _b [7:0] $end
$var wire 2 ) ALUCtrl [1:0] $end
$scope module add0 $end
$var wire 1 * a $end
$var wire 1 + b $end
$var wire 1 , cin $end
$var wire 1 - cout $end
$var wire 1 . s $end
$upscope $end
$scope module add1 $end
$var wire 1 / a $end
$var wire 1 0 b $end
$var wire 1 1 cin $end
$var wire 1 2 cout $end
$var wire 1 3 s $end
$upscope $end
$scope module add2 $end
$var wire 1 4 a $end
$var wire 1 5 b $end
$var wire 1 6 cin $end
$var wire 1 7 cout $end
$var wire 1 8 s $end
$upscope $end
$scope module add3 $end
$var wire 1 9 a $end
$var wire 1 : b $end
$var wire 1 ; cin $end
$var wire 1 < cout $end
$var wire 1 = s $end
$upscope $end
$scope module add4 $end
$var wire 1 > a $end
$var wire 1 ? b $end
$var wire 1 @ cin $end
$var wire 1 A cout $end
$var wire 1 B s $end
$upscope $end
$scope module add5 $end
$var wire 1 C a $end
$var wire 1 D b $end
$var wire 1 E cin $end
$var wire 1 F cout $end
$var wire 1 G s $end
$upscope $end
$scope module add6 $end
$var wire 1 H a $end
$var wire 1 I b $end
$var wire 1 J cin $end
$var wire 1 K cout $end
$var wire 1 L s $end
$upscope $end
$scope module add7 $end
$var wire 1 M a $end
$var wire 1 N b $end
$var wire 1 O cin $end
$var wire 1 P cout $end
$var wire 1 Q s $end
$upscope $end
$upscope $end
$upscope $end
$enddefinitions $end
#0
$dumpvars
0Q
0P
0O
0N
0M
1L
0K
1J
0I
0H
0G
1F
1E
0D
1C
0B
1A
1@
1?
0>
1=
1<
1;
1:
19
08
17
16
15
04
03
12
01
10
1/
1.
0-
0,
0+
1*
b0 )
b11110 (
b101011 '
b11110 &
b111110 %
b1001001 $
b1001001 #
b111111 "
b1010 !
$end
#100000
0@
0<
1P
16
12
0;
0E
1O
11
03
18
07
1=
0B
0A
0G
0L
1K
0Q
b11100011 %
1-
b1101 $
1+
00
05
0:
0?
1D
1I
1N
b1101 #
1.
b11100001 (
1,
b1 )
#200000
1E
1A
01
1@
1J
0-
1;
1<
1F
0O
03
08
17
1=
0B
0G
1L
0K
0Q
b111110 %
0P
0+
10
15
1:
1?
0D
0I
0N
b1010 $
b1001001 #
1.
b11110 (
0,
b10 )
#300000
0@
0<
1P
16
12
0;
0E
1O
11
03
18
07
1=
0B
0A
0G
0L
1K
0Q
b11100011 %
1-
b111111 $
1+
00
05
0:
0?
1D
1I
1N
b1101 #
1.
b11100001 (
1,
b11 )
#400000
08
1@
1E
1J
1;
1<
1A
1F
17
1=
0G
16
b11111111 %
12
10
15
1:
1?
0D
0N
0Q
1L
1B
03
b1011000 $
b1011000 #
0.
b1011111 (
0,
1M
1H
1>
0/
b11111111 "
b1011001 !
b0 )
b1011111 &
b11111001 '
#500000
0E
0A
0@
0<
06
0;
13
02
08
b11100001 %
07
1=
1B
0G
0L
1Q
b10011010 $
0+
00
05
0:
0?
1D
0I
1N
b10011010 #
0.
b10100000 (
1,
b1 )
#600000
1;
17
1@
1E
1J
16
1<
1A
1F
11
03
12
08
1=
1B
0G
1L
0Q
b11111111 %
1-
1+
10
15
1:
1?
0D
1I
0N
b1011001 $
b1011000 #
0.
b1011111 (
0,
b10 )
#700000
0E
0A
0@
0<
06
0;
13
02
08
b11100001 %
07
1=
1B
0G
0L
1Q
b11111111 $
0+
00
05
0:
0?
1D
0I
1N
b10011010 #
0.
b10100000 (
1,
b11 )
#800000
1@
0P
1<
08
0O
0=
0K
1;
17
1L
11
0J
16
1-
0F
b1111 %
12
1+
15
0D
1Q
0G
1B
03
b11010000 $
b11010000 #
0.
b10000101 (
0,
0M
0C
0>
1/
b11001111 "
b1 !
b0 )
b10000101 &
b1001011 '
#900000
1J
1F
1O
0;
1E
1K
13
18
07
0=
0B
b1111011 %
1A
0G
1L
1Q
b11000110 $
0+
10
05
1:
1?
1D
1I
0N
b11000110 #
0.
b1111010 (
1,
b1 )
#1000000
0O
16
0K
12
1@
1;
1<
0E
0J
11
03
08
17
0=
1B
0A
0G
0F
1L
1Q
0P
b1111 %
1-
1+
00
15
0:
0?
0D
0I
1N
b1 $
b11010000 #
0.
b10000101 (
0,
b10 )
#1100000
1J
1F
1O
0;
1E
1K
13
18
07
0=
0B
b1111011 %
1A
0G
1L
1Q
b11001111 $
0+
10
05
1:
1?
1D
1I
0N
b11000110 #
0.
b1111010 (
1,
b11 )
